;;;;
Biossido di azoto (NO2);Media annuale ;non superiore a 40 ug/m3;27;
Biossido di azoto (NO2);Numero di superamenti (numero di ore per anno) per la media oraria del valore limite orario di 200 ug/m3;non più di 18 ore all'anno;0;
Ozono (O3);Numero di superamenti (numero di giorni per anno) della valore massimo giornaliero della media mobile su otto ore del limite di 120 ug/m3;non superiore a 25gg come media sui tre anni;49;
Ozono (O3);Soglia di informazione, numero di superamenti per la media oraria (ore per anno) del valore limite di 180 ug/m3 ;-;1;
Ozono (O3);Soglia di allarme, numero di superamenti per la media oraria (intesa come superamento per tre ore consecutive) del limite di 360 ug/m3;-;0;
Ozono (O3);AOT40 per la vegetazione (maggio-luglio);18000 ug/m3*h ;22827;
Ossidi totali di azoto (NOx);Media annuale ;livello critico: 30 ug/m3;56;
Arsenico nel PM10;Media annuale ;non superiore a 6 nanogrammi/m3;0.7;
Benzene;Media annuale ;non superiore a 5 ug/m3;0.7;
Cadmio nel PM10;Media annuale ;non superiore a 5 nanogrammi/m3;0.1;
Benzo(a)pirene nel PM10;Media annuale ;non superiore a 1 nanogrammi/m3;0.4;
Nichel nel PM10;Media annuale ;non superiore a 20 nanogrammi/m3;1.9;
Piombo nel PM10;Media annuale ;non superiore a 0.5 ug/m3;0.004;
PM10 - Basso Volume;Media annuale ;non superiore a 40 ug/m3;27;
PM10 - Basso Volume;Numero di superamenti (numero di giorni per anno) per la media giornaliera del valore limite giornaliero di 50 ug/m3 ;non più di 35gg;37;