;;;;
Biossido di zolfo (SO2);Media annuale ;livello critico 20 ug/m3 sia come media annuale, sia come media 1 ottobre - 31 marzo;7;
Biossido di zolfo (SO2);Numero di superamenti (numero di ore per anno) per la media oraria del valore limite di 350 ug/m3;non più di 24 ore all'anno;0;
Monossido di carbonio (CO);Numero di giorni di superamento per anno;non è consentito neanche un superamento per il rispetto del valore limite;0;
Biossido di azoto (NO2);Media annuale ;non superiore a 40 ug/m3;35;
Biossido di azoto (NO2);Numero di superamenti (numero di ore per anno) per la media oraria del valore limite orario di 200 ug/m3;non più di 18 ore all'anno;0;
Ossidi totali di azoto (NOx);Media annuale ;livello critico: 30 ug/m3;68;
Arsenico nel PM10;Media annuale ;non superiore a 6 nanogrammi/m3;0.7;
Benzene;Media annuale ;non superiore a 5 ug/m3;0.7;
Cadmio nel PM10;Media annuale ;non superiore a 5 nanogrammi/m3;0.1;
Benzo(a)pirene nel PM10;Media annuale ;non superiore a 1 nanogrammi/m3;0.4;
Nichel nel PM10;Media annuale ;non superiore a 20 nanogrammi/m3;3.2;
Piombo nel PM10;Media annuale ;non superiore a 0.5 ug/m3;0.005;
PM10 - Basso Volume;Media annuale ;non superiore a 40 ug/m3;31;
PM10 - Basso Volume;Numero di superamenti (numero di giorni per anno) per la media giornaliera del valore limite giornaliero di 50 ug/m3 ;non più di 35gg;53;